1540298214000,93,1233,88675
1540298215000,94,1250,88675
1540298216000,95,1262,88675
1540298217000,96,1277,88675
1540298218000,97,1290,88675
1540298219000,97,1293,88675
1540298220000,98,1305,88675
1540298221000,99,1313,88675
1540298222000,99,1317,88675
1540298223000,99,1327,88675
1540298224000,100,1328,88675
1540298225000,101,1339,88676
1540298226000,101,1340,88676
1540298227000,101,1349,88676
1540298228000,102,1349,88676
1540298229000,102,1347,88676
1540298230000,102,1349,88676
1540298231000,102,1350,88676
1540298232000,101,1347,88676
1540298233000,101,1340,88676
1540298234000,101,1339,88676
1540298235000,101,1342,88676
1540298236000,101,1341,88676
1540298237000,101,1340,88676
1540298238000,101,1345,88676
1540298239000,101,1344,88676
1540298240000,102,1348,88676
1540298241000,102,1351,88676
1540298242000,102,1355,88676
1540298243000,102,1357,88676
1540298244000,103,1360,88676
1540298245000,103,1370,88676
1540298246000,103,1370,88676
1540298247000,103,1374,88676
1540298248000,103,1372,88676
1540298249000,103,1377,88676
1540298250000,103,1375,88676
1540298251000,104,1377,88676
1540298252000,104,1386,88676
1540298253000,104,1386,88676
1540298254000,104,1388,88676
1540298255000,105,1389,88676
1540298256000,104,1389,88676
1540298257000,105,1394,88676
1540298258000,105,1394,88676
1540298259000,105,1392,88676
1540298260000,105,1397,88676
1540298261000,105,1395,88676
1540298262000,105,1395,88676
1540298263000,105,1400,88676
1540298264000,105,1392,88676
1540298265000,105,1394,88677
1540298266000,104,1388,88677
1540298267000,104,1386,88677
1540298268000,104,1386,88677
1540298269000,104,1384,88677
1540298270000,104,1385,88677
1540298271000,104,1382,88677
1540298272000,104,1383,88677
1540298273000,104,1380,88677
1540298274000,104,1381,88677
1540298275000,103,1377,88677
1540298276000,103,1378,88677
1540298277000,103,1380,88677
1540298278000,103,1376,88677
1540298279000,103,1372,88677
1540298280000,103,1376,88677
1540298281000,104,1376,88677
1540298282000,104,1380,88677
1540298283000,104,1381,88677
1540298284000,104,1384,88677
1540298285000,104,1381,88677
1540298286000,104,1387,88677
1540298287000,104,1390,88677
1540298288000,104,1386,88677
1540298289000,104,1390,88677
1540298290000,104,1387,88677
1540298291000,104,1389,88677
1540298292000,104,1381,88677
1540298293000,104,1382,88677
1540298294000,104,1380,88677
1540298295000,104,1391,88677
1540298296000,104,1385,88677
1540298297000,104,1384,88677
1540298298000,105,1398,88677
1540298299000,105,1399,88677
1540298300000,106,1397,88677
1540298301000,106,1408,88677
1540298302000,106,1403,88677
1540298303000,106,1405,88678
1540298304000,106,1406,88678
1540298305000,106,1407,88678
1540298306000,106,1409,88678
1540298307000,106,1406,88678
1540298308000,106,1410,88678
1540298309000,106,1411,88678
1540298310000,106,1408,88678
1540298311000,106,1405,88678
1540298312000,106,1409,88678
1540298313000,106,1406,88678
1540298314000,105,1397,88678
1540298315000,105,1397,88678
1540298316000,105,1393,88678
1540298317000,105,1387,88678
1540298318000,104,1392,88678
1540298319000,104,1387,88678
1540298320000,104,1388,88678
1540298321000,104,1382,88678
1540298322000,104,1386,88678
1540298323000,104,1389,88678
1540298324000,104,1386,88678
1540298325000,104,1390,88678
1540298326000,104,1388,88678
1540298327000,103,1373,88678
1540298328000,103,1372,88678
1540298329000,103,1377,88678
1540298330000,103,1361,88678
1540298331000,103,1359,88678
1540298332000,103,1358,88678
1540298333000,103,1362,88678
1540298334000,103,1356,88678
1540298335000,103,1361,88679
1540298336000,103,1365,88679
1540298337000,103,1365,88679
1540298338000,103,1362,88679
1540298339000,103,1356,88679
1540298340000,102,1355,88679
1540298341000,102,1359,88679
1540298342000,102,1354,88679
1540298343000,103,1365,88679
1540298344000,103,1368,88679
1540298345000,103,1363,88679
1540298346000,103,1372,88679
1540298347000,103,1367,88679
1540298348000,103,1369,88679
1540298349000,103,1377,88679
1540298350000,103,1376,88679
1540298351000,103,1381,88679
1540298352000,104,1379,88679
1540298353000,103,1379,88679
1540298354000,103,1376,88679
1540298355000,103,1379,88679
1540298356000,103,1379,88679
1540298357000,103,1377,88679
1540298358000,103,1372,88679
1540298359000,103,1374,88679
1540298360000,103,1371,88679
1540298361000,103,1367,88679
1540298362000,103,1366,88679
1540298363000,103,1364,88679
1540298364000,103,1365,88679
1540298365000,103,1365,88680
1540298366000,103,1362,88680
1540298367000,103,1367,88680
1540298368000,103,1364,88680
1540298369000,103,1361,88680
1540298370000,103,1366,88680
1540298371000,103,1365,88680
1540298372000,103,1369,88680
1540298373000,103,1367,88680
1540298374000,103,1367,88680
1540298375000,103,1371,88680
1540298376000,103,1369,88680
1540298377000,103,1370,88680
1540298378000,103,1366,88680
1540298379000,103,1365,88680
1540298380000,103,1365,88680
1540298381000,103,1368,88680
1540298382000,103,1369,88680
1540298383000,103,1366,88680
1540298384000,103,1362,88680
1540298385000,103,1363,88680
1540298386000,103,1363,88680
1540298387000,103,1366,88680
1540298388000,103,1365,88680
1540298389000,103,1367,88680
1540298390000,103,1367,88680
1540298391000,103,1368,88680
1540298392000,103,1373,88680
1540298393000,103,1370,88680
1540298394000,103,1365,88680
1540298395000,103,1368,88680
1540298396000,103,1367,88680
1540298397000,103,1367,88680
1540298398000,103,1367,88680
1540298399000,103,1367,88680
1540298400000,103,1360,88681
1540298401000,103,1364,88681
1540298402000,103,1360,88681
1540298403000,103,1365,88681
1540298404000,103,1368,88681
1540298405000,103,1367,88681
1540298406000,103,1371,88681
1540298407000,103,1366,88681
1540298408000,103,1368,88681
1540298409000,103,1364,88681
1540298410000,103,1362,88681
1540298411000,103,1362,88681
1540298412000,103,1361,88681
1540298413000,103,1366,88681
1540298414000,103,1365,88681
1540298415000,103,1367,88681
1540298416000,103,1371,88681
1540298417000,103,1364,88681
1540298418000,103,1363,88681
1540298419000,103,1365,88681
1540298420000,103,1362,88681
1540298421000,103,1369,88681
1540298422000,103,1366,88681
1540298423000,103,1371,88681
1540298424000,103,1369,88681
1540298425000,103,1366,88681
1540298426000,103,1367,88681
1540298427000,103,1366,88681
1540298428000,103,1365,88681
1540298429000,103,1368,88681
1540298430000,103,1365,88681
1540298431000,103,1371,88681
1540298432000,103,1369,88681
1540298433000,103,1364,88681
1540298434000,103,1371,88681
1540298435000,103,1366,88681
1540298436000,103,1372,88681
1540298437000,103,1371,88681
1540298438000,103,1369,88681
1540298439000,103,1368,88681
1540298440000,103,1370,88681
1540298441000,103,1369,88681
1540298442000,103,1372,88682
1540298443000,103,1373,88682
1540298444000,103,1372,88682
1540298445000,103,1367,88682
1540298446000,103,1368,88682
1540298447000,103,1367,88682
1540298448000,103,1365,88682
1540298449000,103,1366,88682
1540298450000,103,1370,88682
1540298451000,103,1372,88682
1540298452000,103,1370,88682
1540298453000,103,1367,88682
1540298454000,103,1370,88682
1540298455000,103,1369,88682
1540298456000,103,1366,88682
1540298457000,103,1365,88682
1540298458000,103,1365,88682
1540298459000,103,1362,88682
1540298460000,103,1363,88682
1540298461000,103,1368,88682
1540298462000,103,1366,88682
1540298463000,103,1367,88682
1540298464000,103,1367,88682
1540298465000,103,1364,88682
1540298466000,103,1365,88682
1540298467000,103,1364,88682
1540298468000,103,1362,88682
1540298469000,103,1363,88682
1540298470000,103,1365,88682
1540298471000,103,1367,88683
1540298472000,103,1370,88683
1540298473000,103,1370,88683
1540298474000,103,1371,88683
1540298475000,103,1368,88683
1540298476000,103,1366,88683
1540298477000,103,1373,88683
1540298478000,103,1368,88683
1540298479000,103,1368,88683
1540298480000,103,1367,88683
1540298481000,103,1364,88683
1540298482000,103,1365,88683
1540298483000,103,1364,88683
1540298484000,103,1365,88683
1540298485000,103,1368,88683
1540298486000,103,1368,88683
1540298487000,103,1370,88683
1540298488000,103,1365,88683
1540298489000,103,1365,88683
1540298490000,103,1366,88683
1540298491000,103,1368,88683
1540298492000,103,1366,88683
1540298493000,103,1365,88683
1540298494000,103,1368,88683
1540298495000,103,1368,88683
1540298496000,103,1364,88683
1540298497000,103,1364,88683
1540298498000,103,1363,88683
1540298499000,103,1364,88683
1540298500000,103,1369,88683
1540298501000,103,1368,88683
1540298502000,103,1369,88683
1540298503000,103,1368,88683
1540298504000,103,1370,88683
1540298505000,103,1365,88683
1540298506000,103,1363,88684
1540298507000,103,1368,88684
1540298508000,103,1368,88684
1540298509000,103,1370,88684
1540298510000,103,1368,88684
1540298511000,103,1364,88684
1540298512000,103,1366,88684
1540298513000,103,1364,88684
1540298514000,103,1362,88684
1540298515000,103,1363,88684
1540298516000,103,1363,88684
1540298517000,103,1364,88684
1540298518000,103,1366,88684
1540298519000,103,1365,88684
1540298520000,103,1369,88684
1540298521000,103,1366,88684
1540298522000,103,1365,88684
1540298523000,103,1364,88684
1540298524000,103,1367,88684
1540298525000,103,1373,88684
1540298526000,103,1366,88684
1540298527000,103,1366,88684
1540298528000,103,1366,88684
1540298529000,103,1370,88684
1540298530000,101,1344,88684
1540298531000,101,1340,88684
1540298532000,100,1334,88684
1540298533000,99,1324,88684
1540298534000,99,1317,88684
1540298535000,99,1311,88684
1540298536000,99,1313,88684
1540298537000,99,1313,88684
1540298538000,99,1315,88684
1540298539000,99,1313,88685
1540298540000,99,1315,88685
1540298541000,99,1318,88685
1540298542000,99,1321,88685
1540298543000,99,1329,88685
1540298544000,99,1326,88685
1540298545000,99,1327,88685
1540298546000,99,1321,88685
1540298547000,99,1322,88685
1540298548000,99,1320,88685
1540298549000,99,1323,88685
1540298550000,100,1330,88685
1540298551000,99,1330,88685
1540298552000,100,1328,88685
1540298553000,100,1328,88685
1540298554000,100,1327,88685
1540298555000,99,1327,88685
1540298556000,99,1327,88685
1540298557000,99,1319,88685
1540298558000,98,1303,88685
1540298559000,97,1294,88685
1540298560000,97,1282,88685
1540298561000,96,1271,88685
1540298562000,95,1269,88685
1540298563000,95,1263,88685
1540298564000,94,1258,88685
1540298565000,94,1244,88685
1540298566000,94,1241,88685
1540298567000,93,1236,88685
1540298568000,92,1223,88685
1540298569000,92,1222,88685
1540298570000,90,1207,88685
1540298571000,90,1199,88685
1540298572000,90,1189,88685
1540298573000,89,1180,88685
1540298574000,88,1173,88685
1540298575000,87,1165,88685
1540298576000,87,1154,88685
1540298577000,86,1148,88685
1540298578000,86,1147,88685
1540298579000,86,1136,88685
1540298580000,85,1135,88685
1540298581000,85,1130,88685
1540298582000,85,1129,88685
1540298583000,85,1122,88686
1540298584000,84,1125,88686
1540298585000,83,1287,88686
1540298586000,83,1298,88686
1540298587000,83,1297,88686
1540298588000,83,1302,88686
1540298589000,83,1301,88686
1540298590000,83,1308,88686
1540298591000,84,1312,88686
1540298592000,84,1318,88686
1540298593000,85,1318,88686
1540298594000,85,1322,88686
1540298595000,85,1324,88686
1540298596000,86,1331,88686
1540298597000,86,1335,88686
1540298598000,86,1342,88686
1540298599000,86,1340,88686
1540298600000,86,1342,88686
1540298601000,86,1345,88686
1540298602000,86,1346,88686
1540298603000,86,1347,88686
1540298604000,86,1350,88686
1540298605000,86,1346,88686
1540298606000,86,1350,88686
1540298607000,86,1345,88686
1540298608000,86,1347,88686
1540298609000,86,1341,88686
1540298610000,86,1348,88686
1540298611000,86,1356,88686
1540298612000,86,1357,88686
1540298613000,87,1357,88686
1540298614000,88,1373,88686
1540298615000,88,1377,88686
1540298616000,88,1379,88686
1540298617000,88,1369,88686
1540298618000,88,1372,88686
1540298619000,88,1372,88686
1540298620000,88,1371,88686
1540298621000,88,1369,88687
1540298622000,88,1370,88687
1540298623000,88,1378,88687
1540298624000,88,1378,88687
1540298625000,89,1381,88687
1540298626000,89,1384,88687
1540298627000,89,1392,88687
1540298628000,89,1388,88687
1540298629000,89,1386,88687
1540298630000,89,1391,88687
1540298631000,89,1389,88687
1540298632000,89,1389,88687
1540298633000,90,1391,88687
1540298634000,90,1398,88687
1540298635000,90,1399,88687
1540298636000,90,1403,88687
1540298637000,90,1409,88687
1540298638000,90,1399,88687
1540298639000,90,1395,88687
1540298640000,90,1395,88687
1540298641000,90,1400,88687
1540298642000,89,1390,88687
1540298643000,90,1398,88687
1540298644000,90,1398,88687
1540298645000,90,1403,88687
1540298646000,90,1409,88687
1540298647000,90,1411,88687
1540298648000,90,1404,88687
1540298649000,91,1423,88687
1540298650000,91,1420,88687
1540298651000,91,1427,88687
1540298652000,92,1435,88687
1540298653000,93,1453,88687
1540298654000,94,1456,88687
1540298655000,94,1466,88687
1540298656000,94,1473,88687
1540298657000,95,1482,88687
1540298658000,95,1483,88687
1540298659000,95,1481,88687
1540298660000,95,1483,88688
1540298661000,95,1480,88688
1540298662000,94,1471,88688
1540298663000,94,1465,88688
1540298664000,94,1440,88688
1540298665000,94,1462,88688
1540298666000,93,1447,88688
1540298667000,92,1429,88688
1540298668000,92,1435,88688
1540298669000,92,1436,88688
1540298670000,92,1432,88688
1540298671000,92,1442,88688
1540298672000,93,1451,88688
1540298673000,94,1453,88688
1540298674000,94,1461,88688
1540298675000,94,1468,88688
1540298676000,94,1474,88688
1540298677000,94,1480,88688
1540298678000,95,1484,88688
1540298679000,96,1490,88688
1540298680000,96,1497,88688
1540298681000,96,1498,88688
1540298682000,97,1508,88688
1540298683000,97,1504,88688
1540298684000,97,1506,88688
1540298685000,97,1508,88688
1540298686000,97,1507,88688
1540298687000,97,1508,88688
1540298688000,96,1496,88688
1540298689000,97,1505,88688
1540298690000,97,1506,88688
1540298691000,97,1509,88688
1540298692000,96,1501,88688
1540298693000,96,1496,88688
1540298694000,96,1496,88688
1540298695000,95,1481,88688
1540298696000,96,1495,88688
1540298697000,95,1277,88688
1540298698000,94,1263,88689
1540298699000,94,1239,88689
1540298700000,94,1266,88689
1540298701000,94,1251,88689
1540298702000,94,1247,88689
1540298703000,94,1259,88689
1540298704000,94,1243,88689
1540298705000,94,1250,88689
1540298706000,94,1244,88689
1540298707000,94,1240,88689
1540298708000,94,1246,88689
1540298709000,94,1249,88689
1540298710000,94,1243,88689
1540298711000,94,1244,88689
1540298712000,94,1242,88689
1540298713000,94,1243,88689
1540298714000,93,1242,88689
1540298715000,93,1238,88689
1540298716000,94,1246,88689
1540298717000,94,1241,88689
1540298718000,94,1242,88689
1540298719000,94,1249,88689
1540298720000,94,1254,88689
1540298721000,94,1260,88689
1540298722000,94,1285,88689
1540298723000,95,1267,88689
1540298724000,95,1268,88689
1540298725000,96,1276,88689
1540298726000,96,1287,88689
1540298727000,97,1290,88689
1540298728000,98,1294,88689
1540298729000,98,1301,88689
1540298730000,99,1310,88689
1540298731000,99,1318,88689
1540298732000,99,1317,88689
1540298733000,100,1327,88690
1540298734000,100,1335,88690
1540298735000,100,1334,88690
1540298736000,100,1332,88690
1540298737000,101,1334,88690
1540298738000,101,1342,88690
1540298739000,101,1339,88690
1540298740000,101,1348,88690
1540298741000,100,1327,88690
1540298742000,100,1316,88690
1540298743000,100,1330,88690
1540298744000,100,1331,88690
1540298745000,100,1327,88690
1540298746000,100,1326,88690
1540298747000,100,1330,88690
1540298748000,99,1320,88690
1540298749000,99,1324,88690
1540298750000,100,1332,88690
1540298751000,100,1335,88690
1540298752000,100,1332,88690
1540298753000,100,1328,88690
1540298754000,100,1329,88690
1540298755000,100,1334,88690
1540298756000,99,1324,88690
1540298757000,99,1326,88690
1540298758000,99,1326,88690
1540298759000,99,1326,88690
1540298760000,99,1325,88690
1540298761000,99,1319,88690
1540298762000,99,1324,88690
1540298763000,99,1321,88690
1540298764000,100,1325,88690
1540298765000,100,1330,88690
1540298766000,100,1332,88690
1540298767000,100,1335,88690
1540298768000,100,1340,88690
1540298769000,100,1334,88690
1540298770000,100,1334,88690
1540298771000,100,1335,88690
1540298772000,100,1339,88690
1540298773000,100,1332,88690
1540298774000,100,1328,88690
1540298775000,100,1331,88691
1540298776000,100,1323,88691
1540298777000,99,1326,88691
1540298778000,99,1328,88691
1540298779000,99,1319,88691
1540298780000,99,1315,88691
1540298781000,99,1308,88691
1540298782000,98,1305,88691
1540298783000,98,1301,88691
1540298784000,97,1294,88691
1540298785000,97,1293,88691
1540298786000,97,1290,88691
1540298787000,96,1268,88691
1540298788000,97,1286,88691
1540298789000,96,1280,88691
1540298790000,95,1270,88691
1540298791000,95,1264,88691
1540298792000,95,1264,88691
1540298793000,94,1260,88691
1540298794000,94,1252,88691
1540298795000,94,1246,88691
1540298796000,93,1233,88691
1540298797000,92,1227,88691
1540298798000,91,1211,88691
1540298799000,91,1211,88691
1540298800000,90,1193,88691
1540298801000,89,1185,88691
1540298802000,88,1173,88691
1540298803000,88,1161,88691
1540298804000,88,1177,88691
1540298805000,88,1174,88691
1540298806000,88,1175,88691
1540298807000,88,1183,88691
1540298808000,89,1177,88691
1540298809000,89,1175,88691
1540298810000,86,1141,88692
1540298811000,78,1048,88692
1540298812000,74,987,88692
1540298813000,71,950,88692
1540298814000,70,923,88692
1540298815000,68,903,88692
1540298816000,67,891,88692
1540298817000,66,894,88692
1540298818000,68,1246,88692
1540298819000,66,1214,88692
1540298820000,67,1227,88692
1540298821000,68,1237,88692
1540298822000,69,1253,88692
1540298823000,70,1275,88692
1540298824000,71,1290,88692
1540298825000,72,1310,88692
1540298826000,73,1329,88692
1540298827000,74,1354,88692
1540298828000,75,1371,88692
1540298829000,76,1382,88692
1540298830000,77,1404,88692
1540298831000,78,1421,88692
1540298832000,78,1432,88692
1540298833000,80,1451,88692
1540298834000,80,1467,88692
1540298835000,81,1481,88692
1540298836000,82,1489,88692
1540298837000,82,1504,88692
1540298838000,82,568,88692
1540298839000,82,1303,88692
1540298840000,82,1273,88692
1540298841000,82,1283,88692
1540298842000,82,1296,88692
1540298843000,84,1309,88692
1540298844000,84,1314,88692
1540298845000,85,1325,88692
1540298846000,86,1329,88692
1540298847000,86,1346,88692
1540298848000,86,1353,88692
1540298849000,87,1358,88692
1540298850000,88,1367,88692
1540298851000,88,1377,88692
1540298852000,89,1390,88692
1540298853000,90,1393,88692
1540298854000,90,1403,88693
1540298855000,90,1404,88693
1540298856000,90,1411,88693
1540298857000,91,1417,88693
1540298858000,91,1422,88693
1540298859000,91,1431,88693
1540298860000,92,1433,88693
1540298861000,92,1433,88693
1540298862000,93,1446,88693
1540298863000,93,1452,88693
1540298864000,93,1455,88693
1540298865000,93,1272,88693
1540298866000,92,1221,88693
1540298867000,92,1222,88693
1540298868000,92,1225,88693
1540298869000,92,1225,88693
1540298870000,93,1234,88693
1540298871000,93,1234,88693
1540298872000,93,1241,88693
1540298873000,93,1241,88693
1540298874000,94,1241,88693
1540298875000,94,1245,88693
1540298876000,94,1242,88693
1540298877000,94,1251,88693
1540298878000,94,1242,88693
1540298879000,94,1243,88693
1540298880000,94,1244,88693
1540298881000,94,1248,88693
1540298882000,94,1254,88693
1540298883000,94,1254,88693
1540298884000,95,1267,88693
1540298885000,95,1264,88693
1540298886000,96,1281,88693
1540298887000,97,1282,88693
1540298888000,97,1291,88693
1540298889000,97,1292,88693
1540298890000,97,1284,88693
1540298891000,97,1284,88693
1540298892000,96,1271,88693
1540298893000,94,1257,88694
1540298894000,94,1250,88694
1540298895000,93,1240,88694
1540298896000,92,1234,88694
1540298897000,92,1227,88694
1540298898000,92,1219,88694
1540298899000,91,1221,88694
1540298900000,91,1219,88694
1540298901000,91,1223,88694
1540298902000,91,1220,88694
1540298903000,91,1214,88694
1540298904000,92,1225,88694
1540298905000,93,1234,88694
1540298906000,93,1245,88694
1540298907000,94,1245,88694
1540298908000,94,1244,88694
1540298909000,93,1239,88694
1540298910000,92,1225,88694
1540298911000,93,1237,88694
1540298912000,92,1220,88694
1540298913000,92,1228,88694
1540298914000,92,1221,88694
1540298915000,92,1229,88694
1540298916000,93,1235,88694
1540298917000,93,1246,88694
1540298918000,94,1247,88694
1540298919000,94,1254,88694
1540298920000,95,1266,88694
1540298921000,95,1278,88694
1540298922000,96,1276,88694
1540298923000,97,1283,88694
1540298924000,97,1295,88694
1540298925000,98,1304,88694
1540298926000,99,1316,88694
1540298927000,99,1313,88694
1540298928000,99,1319,88694
1540298929000,99,1316,88694
1540298930000,100,1335,88694
1540298931000,101,1345,88694
1540298932000,101,1346,88694
1540298933000,102,1347,88694
1540298934000,103,1353,88695
1540298935000,103,1367,88695
1540298936000,103,1368,88695
1540298937000,103,1380,88695
1540298938000,104,1384,88695
1540298939000,104,1394,88695
1540298940000,104,1386,88695
1540298941000,104,1389,88695
1540298942000,104,1380,88695
1540298943000,104,1385,88695
1540298944000,104,1381,88695
1540298945000,104,1381,88695
1540298946000,104,1379,88695
1540298947000,104,1380,88695
1540298948000,103,1382,88695
1540298949000,103,1375,88695
1540298950000,103,1372,88695
1540298951000,103,1372,88695
1540298952000,103,1373,88695
1540298953000,103,1377,88695
1540298954000,103,1375,88695
1540298955000,103,1376,88695
1540298956000,103,1378,88695
1540298957000,104,1379,88695
1540298958000,104,1388,88695
1540298959000,104,1386,88695
1540298960000,104,1385,88695
1540298961000,105,1395,88695
1540298962000,105,1394,88695
1540298963000,105,1397,88695
1540298964000,105,1402,88695
1540298965000,106,1401,88695
1540298966000,106,1401,88696
1540298967000,106,1412,88696
1540298968000,106,1403,88696
1540298969000,106,1407,88696
1540298970000,106,1408,88696
1540298971000,106,1405,88696
1540298972000,106,1413,88696
1540298973000,106,1415,88696
1540298974000,107,1416,88696
1540298975000,107,1413,88696
1540298976000,107,1411,88696
1540298977000,107,1410,88696
1540298978000,106,1409,88696
1540298979000,106,1414,88696
1540298980000,106,1409,88696
1540298981000,106,1404,88696
1540298982000,106,1407,88696
1540298983000,106,1401,88696
1540298984000,106,1404,88696
1540298985000,106,1405,88696
1540298986000,106,1406,88696
1540298987000,106,1405,88696
1540298988000,106,1405,88696
1540298989000,106,1404,88696
1540298990000,106,1405,88696
1540298991000,106,1401,88696
1540298992000,106,1407,88696
1540298993000,106,1401,88696
1540298994000,105,1401,88696
1540298995000,105,1397,88696
1540298996000,105,1399,88696
1540298997000,105,1396,88696
1540298998000,105,1399,88696
1540298999000,105,1397,88696
1540299000000,105,1399,88696
1540299001000,105,1401,88696
1540299002000,105,1394,88697
1540299003000,105,1393,88697
1540299004000,105,1397,88697
1540299005000,105,1395,88697
1540299006000,105,1391,88697
1540299007000,105,1397,88697
1540299008000,105,1392,88697
1540299009000,105,1392,88697
1540299010000,105,1391,88697
1540299011000,105,1395,88697
1540299012000,105,1397,88697
1540299013000,105,1396,88697
1540299014000,105,1391,88697
1540299015000,104,1389,88697
1540299016000,104,1385,88697
1540299017000,103,1378,88697
1540299018000,103,1373,88697
1540299019000,103,1374,88697
1540299020000,103,1375,88697
1540299021000,103,1373,88697
1540299022000,103,1379,88697
1540299023000,104,1379,88697
1540299024000,104,1384,88697
1540299025000,104,1390,88697
1540299026000,105,1391,88697
1540299027000,105,1398,88697
1540299028000,106,1399,88697
1540299029000,106,1403,88697
1540299030000,106,1411,88697
1540299031000,107,1411,88697
1540299032000,107,1415,88697
1540299033000,107,1420,88697
1540299034000,107,1420,88698
1540299035000,107,1423,88698
1540299036000,107,1424,88698
1540299037000,107,1421,88698
1540299038000,107,1414,88698
1540299039000,106,1421,88698
1540299040000,106,1408,88698
1540299041000,106,1407,88698
1540299042000,106,1409,88698
1540299043000,106,1409,88698
1540299044000,106,1411,88698
1540299045000,107,1413,88698
1540299046000,107,1416,88698
1540299047000,107,1415,88698
1540299048000,107,1415,88698
1540299049000,107,1414,88698
1540299050000,107,1412,88698
1540299051000,106,1412,88698
1540299052000,106,1408,88698
1540299053000,106,1407,88698
1540299054000,105,1392,88698
1540299055000,106,1417,88698
1540299056000,105,1394,88698
1540299057000,104,1384,88698
1540299058000,104,1379,88698
1540299059000,104,1384,88698
1540299060000,104,1384,88698
1540299061000,104,1385,88698
1540299062000,104,1387,88698
1540299063000,105,1394,88698
1540299064000,105,1399,88698
1540299065000,105,1400,88698
1540299066000,106,1402,88698
1540299067000,106,1407,88698
1540299068000,106,1404,88698
1540299069000,107,1415,88698
1540299070000,107,1414,88698
1540299071000,107,1400,88698
1540299072000,107,1408,88698
1540299073000,107,1417,88699
1540299074000,107,1414,88699
1540299075000,107,1420,88699
1540299076000,107,1420,88699
1540299077000,107,1425,88699
1540299078000,107,1425,88699
1540299079000,107,1433,88699
1540299080000,107,1421,88699
1540299081000,108,1434,88699
1540299082000,108,1433,88699
1540299083000,108,1437,88699
1540299084000,108,1430,88699
1540299085000,108,1435,88699
1540299086000,107,1433,88699
1540299087000,107,1433,88699
1540299088000,107,1431,88699
1540299089000,107,1430,88699
1540299090000,107,1429,88699
1540299091000,107,1429,88699
1540299092000,107,1422,88699
1540299093000,107,1424,88699
1540299094000,107,1421,88699
1540299095000,107,1416,88699
1540299096000,106,1400,88699
1540299097000,106,1410,88699
1540299098000,106,1407,88699
1540299099000,106,1407,88699
1540299100000,106,1399,88699
1540299101000,106,1408,88699
1540299102000,106,1406,88699
1540299103000,106,1406,88699
1540299104000,106,1411,88699
1540299105000,107,1413,88700
1540299106000,107,1416,88700
1540299107000,107,1417,88700
1540299108000,107,1420,88700
1540299109000,107,1427,88700
1540299110000,107,1426,88700
1540299111000,107,1429,88700
1540299112000,107,1427,88700
1540299113000,107,1427,88700
